{
  "DA Warner": {
    "P Kumar": 3,
    "L Balaji": 3,
    "Harbhajan Singh": 3,
    "BW Hilfenhaus": 3,
    "UT Yadav": 3
  },
  "S Dhawan": {
    "Z Khan": 4,
    "SL Malinga": 4,
    "JP Faulkner": 4,
    "P Kumar": 4
  },
  "MC Henriques": {
    "Sandeep Sharma": 2
  },
  "Yuvraj Singh": {
    "SL Malinga": 3,
    "UT Yadav": 3
  },
  "Mandeep Singh": {
    "VR Aaron": 2,
    "UT Yadav": 2,
    "A Mishra": 2,
    "R Sharma": 2,
    "R Vinay Kumar": 2,
    "JH Kallis": 2,
    "MM Sharma": 2
  },
  "CH Gayle": {
    "Sandeep Sharma": 4,
    "R Ashwin": 4
  },
  "TM Head": {
    "Rashid Khan": 1,
    "AJ Tye": 1,
    "JD Unadkat": 1,
    "KH Pandya": 1,
    "Sandeep Sharma": 1
  },
  "Sachin Baby": {
    "Bipul Sharma": 1,
    "Washington Sundar": 1,
    "PJ Cummins": 1,
    "A Mishra": 1,
    "A Nehra": 1,
    "AD Russell": 1,
    "DS Kulkarni": 1
  },
  "STR Binny": {
    "UT Yadav": 2,
    "Yuvraj Singh": 2,
    "R Vinay Kumar": 2,
    "MG Johnson": 2,
    "RA Jadeja": 2,
    "Imran Tahir": 2
  },
  "SR Watson": {
    "AR Patel": 5,
    "RA Jadeja": 5
  },
  "S Aravind": {
    "A Nehra": 1,
    "JP Faulkner": 1,
    "GJ Maxwell": 1
  },
  "TS Mills": {
    "B Kumar": 1,
    "CH Morris": 1,
    "C de Grandhomme": 1
  },
  "PA Patel": {
    "B Kumar": 5
  },
  "RG Sharma": {
    "R Vinay Kumar": 6
  },
  "JC Buttler": {
    "A Nehra": 2,
    "MM Sharma": 2
  },
  "AT Rayudu": {
    "MM Sharma": 5
  },
  "KH Pandya": {
    "DT Christian": 1,
    "R Bhatia": 1,
    "B Kumar": 1,
    "A Mishra": 1,
    "P Negi": 1,
    "SN Thakur": 1,
    "AS Rajpoot": 1,
    "SP Narine": 1,
    "BB Sran": 1,
    "MP Stoinis": 1,
    "CH Morris": 1,
    "DR Smith": 1
  },
  "N Rana": {
    "Ankit Soni": 1,
    "A Zampa": 1,
    "B Kumar": 1,
    "S Badree": 1,
    "AJ Tye": 1,
    "PJ Cummins": 1,
    "DT Christian": 1,
    "AS Rajpoot": 1,
    "P Negi": 1,
    "S Kaul": 1,
    "AR Patel": 1,
    "YS Chahal": 1,
    "MP Stoinis": 1,
    "DJ Bravo": 1
  },
  "KA Pollard": {
    "MM Sharma": 3,
    "YS Chahal": 3,
    "IK Pathan": 3,
    "B Kumar": 3,
    "DJ Bravo": 3
  },
  "MA Agarwal": {
    "R Ashwin": 3
  },
  "AM Rahane": {
    "B Kumar": 6
  },
  "BA Stokes": {
    "HH Pandya": 1,
    "AR Patel": 1,
    "PJ Cummins": 1,
    "AJ Tye": 1,
    "AF Milne": 1,
    "B Kumar": 1,
    "MG Johnson": 1,
    "SP Narine": 1,
    "Rashid Khan": 1,
    "Mohammed Shami": 1
  },
  "JJ Roy": {
    "PP Chawla": 1,
    "B Kumar": 1
  },
  "BB McCullum": {
    "PP Chawla": 4,
    "SL Malinga": 4
  },
  "AJ Finch": {
    "MM Sharma": 3,
    "MG Johnson": 3
  },
  "KD Karthik": {
    "A Nehra": 3,
    "DJ Bravo": 3,
    "DW Steyn": 3,
    "M Muralitharan": 3
  },
  "SPD Smith": {
    "RA Jadeja": 4
  },
  "MS Dhoni": {
    "Z Khan": 7
  },
  "DT Christian": {
    "MM Patel": 2,
    "UT Yadav": 2
  },
  "M Vohra": {
    "PP Chawla": 2,
    "RA Jadeja": 2,
    "L Balaji": 2,
    "A Mishra": 2,
    "Imran Tahir": 2,
    "M Morkel": 2,
    "IC Pandey": 2
  },
  "WP Saha": {
    "DJ Bravo": 3,
    "M Morkel": 3
  },
  "HM Amla": {
    "B Kumar": 2
  },
  "AR Patel": {
    "Imran Tahir": 2,
    "UT Yadav": 2,
    "R Ashwin": 2,
    "SP Narine": 2,
    "DJ Bravo": 2
  },
  "KM Jadhav": {
    "JD Unadkat": 2,
    "MM Sharma": 2,
    "JA Morkel": 2,
    "HV Patel": 2
  },
  "P Negi": {
    "CH Morris": 2,
    "GB Hogg": 2
  },
  "AP Tare": {
    "Shakib Al Hasan": 2,
    "KK Cooper": 2,
    "JA Morkel": 2
  },
  "KK Nair": {
    "Harbhajan Singh": 4
  },
  "SW Billings": {
    "Iqbal Abdulla": 1,
    "Imran Tahir": 1,
    "AR Patel": 1,
    "NM Coulter-Nile": 1,
    "Mohammed Siraj": 1,
    "Sandeep Sharma": 1,
    "UT Yadav": 1,
    "R Bhatia": 1,
    "MP Stoinis": 1,
    "CJ Jordan": 1
  },
  "SV Samson": {
    "MJ McClenaghan": 4
  },
  "CH Morris": {
    "Iqbal Abdulla": 1,
    "Sandeep Sharma": 1,
    "CR Woakes": 1,
    "NM Coulter-Nile": 1,
    "AR Patel": 1,
    "SL Malinga": 1,
    "Harbhajan Singh": 1,
    "MA Starc": 1,
    "PP Chawla": 1,
    "UT Yadav": 1
  },
  "CR Brathwaite": {
    "YS Chahal": 1,
    "DS Kulkarni": 1,
    "PP Chawla": 1,
    "AD Russell": 1,
    "SM Boland": 1,
    "Sandeep Sharma": 1,
    "Mustafizur Rahman": 1,
    "CH Gayle": 1
  },
  "PJ Cummins": {
    "SR Watson": 1,
    "Harbhajan Singh": 1,
    "JP Faulkner": 1,
    "BA Stokes": 1,
    "TM Head": 1,
    "DJ Bravo": 1
  },
  "RR Pant": {
    "JJ Bumrah": 3
  },
  "S Nadeem": {
    "P Negi": 2
  },
  "SK Raina": {
    "Harbhajan Singh": 5
  },
  "DR Smith": {
    "Harbhajan Singh": 4
  },
  "G Gambhir": {
    "Z Khan": 6
  },
  "RV Uthappa": {
    "A Mishra": 4,
    "R Ashwin": 4
  },
  "CA Lynn": {
    "JJ Bumrah": 2
  },
  "YK Pathan": {
    "R Vinay Kumar": 4
  },
  "SA Yadav": {
    "NLTC Perera": 1,
    "SL Malinga": 1,
    "PJ Cummins": 1,
    "P Negi": 1,
    "JJ Bumrah": 1,
    "MN Samuels": 1,
    "Sandeep Sharma": 1,
    "JP Faulkner": 1,
    "RA Jadeja": 1,
    "Karanveer Singh": 1,
    "MG Johnson": 1,
    "HV Patel": 1,
    "RG More": 1,
    "A Nehra": 1,
    "NM Coulter-Nile": 1,
    "MM Sharma": 1,
    "B Kumar": 1,
    "Gurkeerat Singh": 1,
    "MJ McClenaghan": 1,
    "CH Morris": 1,
    "M Ashwin": 1,
    "TG Southee": 1,
    "CR Brathwaite": 1,
    "DR Smith": 1,
    "S Aravind": 1,
    "SB Jakati": 1,
    "MC Henriques": 1
  },
  "CR Woakes": {
    "SL Malinga": 1,
    "A Mishra": 1,
    "TS Mills": 1
  },
  "SP Narine": {
    "MG Johnson": 2
  },
  "Vishnu Vinod": {
    "Sandeep Sharma": 1,
    "PJ Cummins": 1
  },
  "RA Tripathi": {
    "P Negi": 2
  },
  "F du Plessis": {
    "Harbhajan Singh": 3
  },
  "R Bhatia": {
    "Harbhajan Singh": 2,
    "RP Singh": 2,
    "MM Sharma": 2
  },
  "DL Chahar": {
    "Z Khan": 1
  },
  "A Zampa": {
    "A Mishra": 1,
    "A Nehra": 1
  },
  "AB Dinda": {
    "SL Malinga": 2
  },
  "DJ Hooda": {
    "SL Malinga": 2,
    "DJ Bravo": 2
  },
  "BCJ Cutting": {
    "JJ Bumrah": 1,
    "TA Boult": 1,
    "Kuldeep Yadav": 1,
    "S Kaushik": 1
  },
  "V Shankar": {
    "SL Malinga": 1,
    "NM Coulter-Nile": 1
  },
  "NV Ojha": {
    "RP Singh": 4
  },
  "Rashid Khan": {
    "JJ Bumrah": 1,
    "JD Unadkat": 1
  },
  "MP Stoinis": {
    "SP Narine": 1,
    "MJ McClenaghan": 1,
    "AJ Tye": 1,
    "DJ Bravo": 1,
    "RA Jadeja": 1,
    "AD Russell": 1,
    "Z Khan": 1
  },
  "GJ Maxwell": {
    "A Mishra": 4
  },
  "DA Miller": {
    "YS Chahal": 3,
    "SL Malinga": 3
  },
  "MM Sharma": {
    "SL Malinga": 1,
    "CR Woakes": 1,
    "B Kumar": 1,
    "A Nehra": 1,
    "A Choudhary": 1,
    "A Zampa": 1,
    "PJ Cummins": 1,
    "AD Russell": 1,
    "MA Starc": 1,
    "Z Khan": 1,
    "M Morkel": 1,
    "P Kumar": 1
  },
  "VR Aaron": {
    "CR Woakes": 1,
    "B Kumar": 1
  },
  "V Kohli": {
    "A Nehra": 6
  },
  "AB de Villiers": {
    "KH Pandya": 4,
    "PP Chawla": 4
  },
  "MJ McClenaghan": {
    "S Badree": 1,
    "SN Thakur": 1,
    "Imran Tahir": 1,
    "Kuldeep Yadav": 1,
    "Mustafizur Rahman": 1,
    "Sandeep Sharma": 1
  },
  "Ankit Sharma": {
    "AJ Tye": 1,
    "DE Bollinger": 1,
    "KA Pollard": 1,
    "L Balaji": 1,
    "R Ashwin": 1,
    "S Gopal": 1,
    "DJ Bravo": 1
  },
  "MK Tiwary": {
    "M Morkel": 4
  },
  "SN Thakur": {
    "AJ Tye": 1,
    "AF Milne": 1,
    "S Kaul": 1
  },
  "MK Pandey": {
    "SL Malinga": 4,
    "B Kumar": 4,
    "Harbhajan Singh": 4
  },
  "C de Grandhomme": {
    "B Kumar": 1,
    "Z Khan": 1,
    "YS Chahal": 1,
    "S Kaul": 1,
    "JD Unadkat": 1,
    "P Negi": 1,
    "HH Pandya": 1,
    "KV Sharma": 1
  },
  "SS Iyer": {
    "Sandeep Sharma": 3
  },
  "EJG Morgan": {
    "UT Yadav": 2,
    "Azhar Mahmood": 2,
    "MR Marsh": 2
  },
  "KC Cariappa": {
    "CH Morris": 1,
    "B Kumar": 1,
    "P Kumar": 1
  },
  "Ishan Kishan": {
    "Imran Tahir": 2
  },
  "S Badree": {
    "JD Unadkat": 1,
    "CR Woakes": 1,
    "RA Jadeja": 1,
    "Imran Tahir": 1,
    "AR Patel": 1
  },
  "AF Milne": {
    "BA Stokes": 1,
    "Imran Tahir": 1
  },
  "AD Mathews": {
    "R Vinay Kumar": 3
  },
  "Mohammad Nabi": {
    "Sandeep Sharma": 1
  },
  "I Sharma": {
    "S Kaul": 1,
    "A Zampa": 1,
    "DJ Thornely": 1,
    "RP Singh": 1,
    "R Vinay Kumar": 1
  },
  "KS Williamson": {
    "CH Morris": 2
  },
  "SE Marsh": {
    "B Kumar": 3
  },
  "CJ Anderson": {
    "DW Steyn": 1,
    "MJ McClenaghan": 1,
    "SL Malinga": 1,
    "Washington Sundar": 1,
    "TM Head": 1,
    "SP Narine": 1,
    "MA Starc": 1,
    "JD Unadkat": 1,
    "VR Aaron": 1,
    "R Dhawan": 1,
    "YS Chahal": 1,
    "M Morkel": 1,
    "R Ashwin": 1,
    "AR Patel": 1,
    "CH Morris": 1,
    "A Nehra": 1
  },
  "K Rabada": {
    "JJ Bumrah": 1,
    "Sandeep Sharma": 1,
    "KV Sharma": 1
  },
  "RA Jadeja": {
    "A Mishra": 4
  },
  "AD Nath": {
    "KC Cariappa": 1,
    "MJ McClenaghan": 1,
    "B Kumar": 1,
    "YS Chahal": 1
  },
  "AJ Tye": {
    "Sandeep Sharma": 1
  },
  "NM Coulter-Nile": {
    "P Negi": 1,
    "BA Stokes": 1,
    "MG Johnson": 1,
    "Azhar Mahmood": 1,
    "R Ashwin": 1,
    "D Wiese": 1,
    "DS Kulkarni": 1
  },
  "Kuldeep Yadav": {
    "S Aravind": 1,
    "TG Southee": 1
  },
  "YS Chahal": {
    "C de Grandhomme": 1
  },
  "KV Sharma": {
    "SR Watson": 2,
    "DJ Bravo": 2,
    "NM Coulter-Nile": 2
  },
  "HH Pandya": {
    "Mustafizur Rahman": 2
  },
  "MJ Guptill": {
    "B Kumar": 2
  },
  "Anureet Singh": {
    "A Nehra": 1,
    "MM Sharma": 1,
    "P Kumar": 1,
    "MA Starc": 1
  },
  "IK Pathan": {
    "R Dhawan": 2,
    "L Balaji": 2,
    "SC Ganguly": 2,
    "Z Khan": 2,
    "SL Malinga": 2,
    "A Mishra": 2,
    "PP Ojha": 2,
    "DW Steyn": 2,
    "SP Narine": 2
  },
  "JP Faulkner": {
    "B Kumar": 2,
    "Sandeep Sharma": 2
  },
  "Harbhajan Singh": {
    "P Kumar": 4,
    "DJ Bravo": 4
  },
  "Mohammed Shami": {
    "VR Aaron": 1,
    "Harbhajan Singh": 1,
    "JD Unadkat": 1,
    "P Negi": 1,
    "KK Cooper": 1,
    "R Ashwin": 1,
    "AR Patel": 1
  },
  "SP Jackson": {
    "B Kumar": 1,
    "Washington Sundar": 1
  },
  "PJ Sangwan": {
    "JD Unadkat": 1,
    "Mohammed Siraj": 1,
    "A Nehra": 1,
    "LR Shukla": 1,
    "SB Jakati": 1
  },
  "Ankit Soni": {
    "JD Unadkat": 1,
    "S Kaul": 1
  },
  "A Choudhary": {
    "MM Sharma": 1
  },
  "Bipul Sharma": {
    "JD Unadkat": 1,
    "SL Malinga": 1,
    "AA Chavan": 1,
    "SP Narine": 1,
    "CJ Jordan": 1
  },
  "B Kumar": {
    "RP Singh": 2
  },
  "LMP Simmons": {
    "R Ashwin": 2,
    "Ankit Sharma": 2,
    "RA Jadeja": 2
  },
  "MN Samuels": {
    "KV Sharma": 1,
    "DT Christian": 1,
    "HV Patel": 1,
    "SL Malinga": 1,
    "Harmeet Singh": 1,
    "AD Mascarenhas": 1,
    "VY Mahesh": 1,
    "R Ashwin": 1,
    "A Ashish Reddy": 1,
    "NLTC Perera": 1
  },
  "Z Khan": {
    "DW Steyn": 2
  },
  "Swapnil Singh": {
    "CR Woakes": 1,
    "JD Unadkat": 1,
    "AD Russell": 1
  },
  "P Kumar": {
    "SL Malinga": 3
  },
  "MM Patel": {
    "B Kumar": 1,
    "A Kumble": 1,
    "JDP Oram": 1,
    "BA Bhatt": 1
  },
  "R Tewatia": {
    "SN Thakur": 1,
    "AR Patel": 1
  },
  "A Mishra": {
    "SL Malinga": 2
  },
  "CJ Jordan": {
    "NM Coulter-Nile": 1
  },
  "IR Jaggi": {
    "KV Sharma": 1,
    "SK Warne": 1,
    "Iqbal Abdulla": 1,
    "SP Narine": 1,
    "Harbhajan Singh": 1
  },
  "PP Chawla": {
    "KK Cooper": 2,
    "JA Morkel": 2,
    "SR Watson": 2,
    "DJ Bravo": 2,
    "NLTC Perera": 2
  },
  "AS Rajpoot": {
    "SL Malinga": 1
  },
  "SC Ganguly": {
    "R Vinay Kumar": 3
  },
  "RT Ponting": {
    "JH Kallis": 1,
    "WPUJC Vaas": 1,
    "JDP Oram": 1,
    "M Kartik": 1,
    "AS Rajpoot": 1,
    "IK Pathan": 1,
    "Yuvraj Singh": 1,
    "A Chandila": 1
  },
  "DJ Hussey": {
    "SK Trivedi": 4
  },
  "R Dravid": {
    "MM Patel": 3,
    "AD Mathews": 3,
    "Harbhajan Singh": 3
  },
  "JH Kallis": {
    "RP Singh": 4
  },
  "W Jaffer": {
    "AB Dinda": 1,
    "P Amarnath": 1,
    "GD McGrath": 1,
    "S Sreesanth": 1,
    "PP Ojha": 1,
    "Z Khan": 1,
    "A Singh": 1
  },
  "MV Boucher": {
    "RP Singh": 2,
    "PJ Sangwan": 2
  },
  "B Akhil": {
    "AB Agarkar": 1,
    "DR Smith": 1,
    "SK Warne": 1,
    "JDP Oram": 1,
    "M Morkel": 1
  },
  "CL White": {
    "R Vinay Kumar": 2,
    "MN Samuels": 2,
    "P Parameswaran": 2
  },
  "SB Joshi": {
    "LR Shukla": 1
  },
  "ML Hayden": {
    "PJ Sangwan": 2,
    "YK Pathan": 2,
    "A Kumble": 2,
    "RR Powar": 2,
    "KA Pollard": 2
  },
  "JDP Oram": {
    "IK Pathan": 2,
    "R Vinay Kumar": 2
  },
  "K Goel": {
    "MS Gony": 2
  },
  "JR Hopes": {
    "A Mishra": 1,
    "P Amarnath": 1,
    "AB Dinda": 1,
    "Z Khan": 1,
    "JA Morkel": 1,
    "R Vinay Kumar": 1,
    "YK Pathan": 1,
    "SK Warne": 1,
    "SM Pollock": 1,
    "Umar Gul": 1,
    "M Ntini": 1,
    "A Mithun": 1,
    "Iqbal Abdulla": 1,
    "DJ Bravo": 1,
    "PP Chawla": 1
  },
  "KC Sangakkara": {
    "R Sharma": 5
  },
  "T Kohli": {
    "GD McGrath": 1,
    "AB Dinda": 1
  },
  "DS Lehmann": {
    "MF Maharoof": 1,
    "IK Pathan": 1
  },
  "M Kaif": {
    "A Mishra": 2,
    "S Sreesanth": 2,
    "M Muralitharan": 2
  },
  "M Rawat": {
    "R Bhatia": 1,
    "P Kumar": 1,
    "A Nehra": 1,
    "Mohammad Asif": 1,
    "JH Kallis": 1
  },
  "SK Warne": {
    "MF Maharoof": 2,
    "A Kumble": 2,
    "A Mishra": 2
  },
  "V Sehwag": {
    "SR Watson": 3,
    "A Nehra": 3,
    "MM Patel": 3
  },
  "L Ronchi": {
    "Z Khan": 1,
    "RP Singh": 1
  },
  "DJ Thornely": {
    "Z Khan": 1,
    "R Bhatia": 1,
    "Shahid Afridi": 1
  },
  "PR Shah": {
    "B Akhil": 1,
    "RP Singh": 1,
    "S Sreesanth": 1,
    "VY Mahesh": 1,
    "TL Suman": 1,
    "R Bhatia": 1,
    "DP Nannes": 1,
    "BJ Hodge": 1
  },
  "AM Nayar": {
    "A Nehra": 2,
    "IK Pathan": 2,
    "M Kartik": 2
  },
  "SM Pollock": {
    "Z Khan": 1,
    "P Amarnath": 1,
    "S Sreesanth": 1,
    "SB Bangar": 1,
    "VY Mahesh": 1,
    "Yuvraj Singh": 1,
    "MF Maharoof": 1,
    "Sohail Tanvir": 1
  },
  "S Chanderpaul": {
    "DS Kulkarni": 1,
    "SR Watson": 1,
    "I Sharma": 1
  },
  "LRPL Taylor": {
    "SL Malinga": 2,
    "PP Ojha": 2,
    "R Bhatia": 2,
    "JA Morkel": 2,
    "JH Kallis": 2
  },
  "Y Venugopal Rao": {
    "I Sharma": 2,
    "SL Malinga": 2,
    "A Nehra": 2,
    "Yuvraj Singh": 2,
    "R Ashwin": 2
  },
  "VVS Laxman": {
    "SK Raina": 1,
    "AB Dinda": 1,
    "SK Warne": 1,
    "PP Chawla": 1,
    "P Kumar": 1,
    "JD Ryder": 1,
    "DJ Bravo": 1,
    "Mohammad Asif": 1,
    "JA Morkel": 1,
    "M Kartik": 1,
    "S Sreesanth": 1,
    "SW Tait": 1,
    "AP Dole": 1,
    "TM Dilshan": 1,
    "WD Parnell": 1
  },
  "AC Gilchrist": {
    "IK Pathan": 4
  },
  "SB Styris": {
    "Mohammad Hafeez": 1,
    "YK Pathan": 1,
    "SC Ganguly": 1,
    "MF Maharoof": 1,
    "Z Khan": 1,
    "M Muralitharan": 1,
    "KP Pietersen": 1
  },
  "AS Yadav": {
    "DJ Hussey": 1,
    "VY Mahesh": 1,
    "SR Watson": 1,
    "DW Steyn": 1,
    "JA Morkel": 1
  },
  "A Symonds": {
    "A Mishra": 3
  },
  "WPUJC Vaas": {
    "AB Agarkar": 1,
    "LR Shukla": 1,
    "YK Pathan": 1,
    "CK Langeveldt": 1,
    "IK Pathan": 1,
    "PD Collingwood": 1
  },
  "SB Bangar": {
    "M Kartik": 1,
    "PP Chawla": 1,
    "SR Watson": 1,
    "SC Ganguly": 1,
    "Kamran Khan": 1
  },
  "Mohammad Hafeez": {
    "PP Ojha": 1,
    "P Amarnath": 1,
    "ST Jayasuriya": 1,
    "IK Pathan": 1,
    "SM Pollock": 1,
    "M Ntini": 1,
    "MM Patel": 1
  },
  "DPMD Jayawardene": {
    "M Muralitharan": 3,
    "JA Morkel": 3,
    "DL Vettori": 3,
    "SL Malinga": 3,
    "I Sharma": 3
  },
  "B Lee": {
    "SK Trivedi": 1,
    "SL Malinga": 1,
    "SK Raina": 1,
    "Z Khan": 1,
    "M Muralitharan": 1,
    "KK Cooper": 1,
    "S Sreesanth": 1
  },
  "Kamran Akmal": {
    "JR Hopes": 1,
    "WPUJC Vaas": 1,
    "PP Chawla": 1
  },
  "Shahid Afridi": {
    "R Bhatia": 1,
    "YK Pathan": 1,
    "Gagandeep Singh": 1,
    "SK Warne": 1,
    "A Mishra": 1,
    "DJ Bravo": 1,
    "P Kumar": 1,
    "L Balaji": 1
  },
  "MEK Hussey": {
    "Z Khan": 4
  },
  "ST Jayasuriya": {
    "SR Watson": 2,
    "DW Steyn": 2,
    "B Lee": 2,
    "RP Singh": 2,
    "RE van der Merwe": 2
  },
  "DJ Bravo": {
    "RP Singh": 3,
    "PP Ojha": 3
  },
  "MA Khote": {
    "M Muralitharan": 1,
    "S Sreesanth": 1
  },
  "GC Smith": {
    "P Kumar": 2
  },
  "RR Sarwan": {
    "A Nehra": 1,
    "P Kumar": 1,
    "L Balaji": 1
  },
  "S Sohal": {
    "RP Singh": 2
  },
  "S Sreesanth": {
    "DS Kulkarni": 1,
    "RE van der Merwe": 1,
    "R Vinay Kumar": 1
  },
  "SS Tiwary": {
    "PP Chawla": 2,
    "SB Jakati": 2,
    "AB Dinda": 2
  },
  "AB Agarkar": {
    "MS Gony": 1,
    "ST Jayasuriya": 1,
    "SR Watson": 1,
    "DJ Bravo": 1,
    "PJ Sangwan": 1,
    "PD Collingwood": 1,
    "R Ashwin": 1
  },
  "M Kartik": {
    "JDP Oram": 1,
    "CRD Fernando": 1,
    "P Kumar": 1,
    "SL Malinga": 1,
    "L Balaji": 1
  },
  "Shoaib Malik": {
    "VRV Singh": 1,
    "DW Steyn": 1,
    "SM Pollock": 1,
    "L Balaji": 1
  },
  "TM Srivastava": {
    "VY Mahesh": 1
  },
  "B Chipli": {
    "R Vinay Kumar": 1,
    "MS Gony": 1,
    "RP Singh": 1,
    "SK Trivedi": 1,
    "R Bhatia": 1,
    "PC Valthaty": 1,
    "KA Pollard": 1,
    "GD McGrath": 1,
    "JA Morkel": 1,
    "AB Agarkar": 1,
    "DS Kulkarni": 1,
    "RA Jadeja": 1,
    "MM Patel": 1,
    "JEC Franklin": 1,
    "AG Murtaza": 1
  },
  "DW Steyn": {
    "SL Malinga": 2
  },
  "DB Das": {
    "Sohail Tanvir": 2,
    "S Sreesanth": 2
  },
  "HH Gibbs": {
    "PP Chawla": 2,
    "P Kumar": 2,
    "Yuvraj Singh": 2,
    "Z Khan": 2
  },
  "DNT Zoysa": {
    "S Sreesanth": 1
  },
  "D Kalyankrishna": {
    "IK Pathan": 1
  },
  "SA Asnodkar": {
    "JA Morkel": 2,
    "P Kumar": 2
  },
  "Salman Butt": {
    "Sohail Tanvir": 1,
    "WPUJC Vaas": 1,
    "VY Mahesh": 1,
    "SM Pollock": 1,
    "L Balaji": 1,
    "MM Patel": 1,
    "S Sreesanth": 1
  },
  "SP Fleming": {
    "VY Mahesh": 1,
    "Sohail Tanvir": 1,
    "SB Styris": 1,
    "Mohammad Asif": 1,
    "S Sreesanth": 1,
    "DS Kulkarni": 1,
    "A Kumble": 1,
    "DP Vijaykumar": 1
  },
  "S Vidyut": {
    "GD McGrath": 1,
    "Sohail Tanvir": 1,
    "PJ Sangwan": 1,
    "S Sreesanth": 1,
    "SM Pollock": 1,
    "DW Steyn": 1,
    "IK Pathan": 1,
    "YK Pathan": 1
  },
  "JA Morkel": {
    "DW Steyn": 2,
    "R Vinay Kumar": 2,
    "PP Ojha": 2,
    "Sohail Tanvir": 2,
    "Azhar Mahmood": 2,
    "UT Yadav": 2
  },
  "LPC Silva": {
    "V Kohli": 1,
    "AM Nayar": 1
  },
  "DB Ravi Teja": {
    "SL Malinga": 3
  },
  "RP Singh": {
    "DW Steyn": 2
  },
  "Misbah-ul-Haq": {
    "DB Ravi Teja": 1,
    "PP Chawla": 1,
    "CRD Fernando": 1,
    "S Sreesanth": 1,
    "MM Patel": 1,
    "L Balaji": 1,
    "Shahid Afridi": 1
  },
  "BJ Hodge": {
    "M Morkel": 2,
    "A Nehra": 2,
    "RJ Harris": 2,
    "YK Pathan": 2,
    "Z Khan": 2,
    "R Vinay Kumar": 2
  },
  "LR Shukla": {
    "VRV Singh": 2,
    "Z Khan": 2
  },
  "YV Takawale": {
    "VY Mahesh": 1,
    "SK Warne": 1,
    "SK Trivedi": 1,
    "JH Kallis": 1,
    "STR Binny": 1,
    "MG Johnson": 1,
    "SP Narine": 1,
    "R Ashwin": 1
  },
  "Mohammad Asif": {
    "DS Kulkarni": 1
  },
  "GD McGrath": {
    "DS Kulkarni": 1
  },
  "S Badrinath": {
    "MG Johnson": 2,
    "A Kumble": 2,
    "DL Vettori": 2,
    "RP Singh": 2,
    "PP Ojha": 2,
    "R Vinay Kumar": 2,
    "KA Pollard": 2
  },
  "Joginder Sharma": {
    "MM Patel": 1,
    "RP Singh": 1,
    "Harbhajan Singh": 1
  },
  "M Muralitharan": {
    "Sohail Tanvir": 1,
    "A Symonds": 1,
    "A Singh": 1,
    "A Ashish Reddy": 1
  },
  "M Ntini": {
    "Sohail Tanvir": 1
  },
  "S Anirudha": {
    "RP Singh": 1,
    "RJ Harris": 1,
    "JH Kallis": 1,
    "P Kumar": 1,
    "Harbhajan Singh": 1,
    "JE Taylor": 1,
    "B Kumar": 1,
    "Shakib Al Hasan": 1
  },
  "Sohail Tanvir": {
    "A Nehra": 1,
    "Umar Gul": 1,
    "MF Maharoof": 1
  },
  "SK Trivedi": {
    "DJ Bravo": 1,
    "L Balaji": 1,
    "RP Singh": 1,
    "DR Smith": 1,
    "AB Dinda": 1,
    "B Lee": 1,
    "R Rampaul": 1
  },
  "CK Kapugedera": {
    "VY Mahesh": 1,
    "DS Kulkarni": 1,
    "Sohail Tanvir": 1
  },
  "A Chopra": {
    "DW Steyn": 1,
    "PJ Sangwan": 1,
    "JR Hopes": 1,
    "PP Ojha": 1
  },
  "T Taibu": {
    "DW Steyn": 1,
    "RP Singh": 1
  },
  "SP Goswami": {
    "MM Patel": 2
  },
  "R Vinay Kumar": {
    "A Singh": 3
  },
  "VRV Singh": {
    "L Balaji": 1
  },
  "MF Maharoof": {
    "SR Watson": 1,
    "PP Ojha": 1,
    "JR Hopes": 1,
    "SK Warne": 1,
    "B Lee": 1,
    "ST Jayasuriya": 1,
    "Iqbal Abdulla": 1,
    "L Ablish": 1
  },
  "AD Mascarenhas": {
    "R Bhatia": 2
  },
  "J Arunkumar": {
    "S Sreesanth": 1,
    "Sohail Tanvir": 1
  },
  "VY Mahesh": {
    "LR Shukla": 1,
    "MM Patel": 1
  },
  "SR Tendulkar": {
    "RP Singh": 3,
    "R Bhatia": 3
  },
  "Younis Khan": {
    "IK Pathan": 1
  },
  "Niraj Patel": {
    "PP Chawla": 1,
    "MS Gony": 1,
    "JD Ryder": 1,
    "CK Langeveldt": 1
  },
  "D Salunkhe": {
    "JR Hopes": 1
  },
  "PP Ojha": {
    "SK Raina": 2
  },
  "Shoaib Akhtar": {
    "RR Raje": 1
  },
  "TM Dilshan": {
    "I Sharma": 3,
    "S Sreesanth": 3
  },
  "DT Patil": {
    "SK Warne": 1
  },
  "A Kumble": {
    "Sohail Tanvir": 1,
    "YA Abdulla": 1
  },
  "Umar Gul": {
    "Sohail Tanvir": 1,
    "VRV Singh": 1
  },
  "MS Gony": {
    "P Kumar": 1,
    "PP Chawla": 1,
    "J Theron": 1,
    "R McLaren": 1,
    "RA Jadeja": 1,
    "JH Kallis": 1,
    "Harbhajan Singh": 1,
    "JP Faulkner": 1
  },
  "LA Pomersbach": {
    "PP Ojha": 1,
    "AM Rahane": 1,
    "MF Maharoof": 1,
    "M Muralitharan": 1,
    "JH Kallis": 1,
    "DE Bollinger": 1,
    "MM Patel": 1,
    "SB Jakati": 1,
    "MM Sharma": 1,
    "RE van der Merwe": 1
  },
  "SD Chitnis": {
    "VY Mahesh": 1,
    "DJ Bravo": 1,
    "WD Parnell": 1,
    "DW Steyn": 1,
    "BW Hilfenhaus": 1,
    "AD Russell": 1
  },
  "A Mukund": {
    "Sohail Tanvir": 1,
    "SK Trivedi": 1
  },
  "WA Mota": {
    "JA Morkel": 1,
    "SL Malinga": 1,
    "JP Duminy": 1,
    "TL Suman": 1,
    "R Ashwin": 1
  },
  "JP Duminy": {
    "DP Nannes": 2,
    "SK Trivedi": 2,
    "Z Khan": 2,
    "IC Pandey": 2
  },
  "A Flintoff": {
    "Harbhajan Singh": 1,
    "A Nehra": 1
  },
  "JD Ryder": {
    "IK Pathan": 2,
    "Harbhajan Singh": 2,
    "YK Pathan": 2
  },
  "KP Pietersen": {
    "Harbhajan Singh": 3
  },
  "T Henderson": {
    "JD Ryder": 1
  },
  "Kamran Khan": {
    "A Kumble": 1
  },
  "RS Bopara": {
    "DJ Bravo": 2
  },
  "R Bishnoi": {
    "M Muralitharan": 1,
    "YA Abdulla": 1
  },
  "PC Valthaty": {
    "IK Pathan": 2,
    "A Mishra": 2
  },
  "RJ Quiney": {
    "A Nehra": 2
  },
  "Yashpal Singh": {
    "SK Warne": 1,
    "DJ Bravo": 1,
    "A Mishra": 1,
    "MM Patel": 1
  },
  "Pankaj Singh": {
    "IK Pathan": 1,
    "KA Pollard": 1
  },
  "FH Edwards": {
    "SL Malinga": 1
  },
  "AS Raut": {
    "PP Chawla": 1,
    "SB Jakati": 1,
    "RG Sharma": 1,
    "A Mishra": 1,
    "Harmeet Singh": 1,
    "JD Unadkat": 1,
    "BA Bhatt": 1
  },
  "AN Ghosh": {
    "AM Nayar": 1,
    "R Vinay Kumar": 1
  },
  "BAW Mendis": {
    "SL Malinga": 1,
    "CH Gayle": 1
  },
  "DL Vettori": {
    "MM Patel": 1,
    "IK Pathan": 1,
    "PP Chawla": 1,
    "R Ashwin": 1,
    "L Balaji": 1,
    "SK Trivedi": 1
  },
  "RE van der Merwe": {
    "I Sharma": 1,
    "YA Abdulla": 1,
    "A Singh": 1,
    "Harbhajan Singh": 1,
    "A Symonds": 1,
    "JA Morkel": 1,
    "PP Ojha": 1,
    "AD Mathews": 1,
    "P Awana": 1,
    "R Ashwin": 1
  },
  "AA Bilakhia": {
    "DL Vettori": 1,
    "SM Harwood": 1,
    "A Mishra": 1,
    "R Vinay Kumar": 1,
    "SK Warne": 1
  },
  "TL Suman": {
    "Harbhajan Singh": 3
  },
  "GR Napier": {
    "CH Gayle": 1
  },
  "MN van Wyk": {
    "GR Napier": 1,
    "A Nehra": 1,
    "DP Nannes": 1
  },
  "LA Carseldine": {
    "Y Venugopal Rao": 1,
    "WPUJC Vaas": 1
  },
  "M Vijay": {
    "S Aravind": 4
  },
  "L Balaji": {
    "A Nehra": 1,
    "R Vinay Kumar": 1,
    "RP Singh": 1,
    "A Mishra": 1,
    "SL Malinga": 1,
    "SP Narine": 1
  },
  "SB Jakati": {
    "DP Nannes": 1
  },
  "M Manhas": {
    "DE Bollinger": 1,
    "M Muralitharan": 1,
    "P Kumar": 1,
    "ST Jayasuriya": 1,
    "R Sharma": 1,
    "J Theron": 1,
    "AM Nayar": 1,
    "BJ Hodge": 1,
    "JR Hopes": 1,
    "AN Ahmed": 1,
    "WA Mota": 1,
    "KMDN Kulasekara": 1,
    "CH Gayle": 1,
    "SK Trivedi": 1,
    "SL Malinga": 1,
    "A Mishra": 1,
    "AD Mascarenhas": 1,
    "V Pratap Singh": 1,
    "JH Kallis": 1,
    "SW Tait": 1,
    "R Bhatia": 1
  },
  "SM Katich": {
    "BJ Hodge": 1,
    "SK Trivedi": 1,
    "L Balaji": 1,
    "RG Sharma": 1,
    "DS Kulkarni": 1,
    "MF Maharoof": 1,
    "A Symonds": 1,
    "M Muralitharan": 1
  },
  "RJ Harris": {
    "MM Patel": 2
  },
  "D du Preez": {
    "A Singh": 1
  },
  "RR Raje": {
    "R Bhatia": 1
  },
  "M Morkel": {
    "RG Sharma": 1,
    "A Kumble": 1,
    "SL Malinga": 1,
    "KA Pollard": 1,
    "SP Narine": 1,
    "NLTC Perera": 1,
    "R Ashwin": 1,
    "PP Chawla": 1,
    "JD Unadkat": 1,
    "AD Mathews": 1
  },
  "Shoaib Ahmed": {
    "R Bhatia": 1
  },
  "DS Kulkarni": {
    "MM Patel": 1,
    "BA Bhatt": 1,
    "MA Starc": 1,
    "YS Chahal": 1,
    "CJ Jordan": 1
  },
  "J Botha": {
    "Anand Rajan": 2
  },
  "A Singh": {
    "A Mishra": 1,
    "Shakib Al Hasan": 1,
    "SK Raina": 1,
    "KA Pollard": 1
  },
  "AB McDonald": {
    "A Kumble": 1,
    "DE Bollinger": 1,
    "M Morkel": 1,
    "Azhar Mahmood": 1,
    "S Nadeem": 1
  },
  "Y Nagar": {
    "Harbhajan Singh": 1,
    "A Kumble": 1,
    "DT Christian": 1,
    "AM Nayar": 1,
    "L Balaji": 1,
    "R Vinay Kumar": 1,
    "WPUJC Vaas": 1,
    "RJ Harris": 1,
    "DL Vettori": 1,
    "AC Thomas": 1,
    "SL Malinga": 1,
    "A Singh": 1,
    "B Lee": 1
  },
  "R Ashwin": {
    "Harbhajan Singh": 3
  },
  "Mohammad Ashraful": {
    "PJ Sangwan": 1
  },
  "CA Pujara": {
    "DE Bollinger": 1,
    "RP Singh": 1,
    "A Symonds": 1,
    "DW Steyn": 1,
    "S Randiv": 1,
    "Y Nagar": 1,
    "M Morkel": 1,
    "JH Kallis": 1,
    "SK Trivedi": 1,
    "P Awana": 1,
    "S Kaul": 1,
    "SMSM Senanayake": 1,
    "MS Gony": 1,
    "R Ashwin": 1,
    "DJG Sammy": 1,
    "AB Dinda": 1,
    "CJ Anderson": 1
  },
  "Anirudh Singh": {
    "LR Shukla": 1,
    "Bipul Sharma": 1,
    "SK Warne": 1,
    "JH Kallis": 1
  },
  "AA Jhunjhunwala": {
    "SL Malinga": 1,
    "JH Kallis": 1,
    "I Sharma": 1,
    "T Thushara": 1,
    "DE Bollinger": 1,
    "Harmeet Singh": 1,
    "Pankaj Singh": 1,
    "KA Pollard": 1,
    "SJ Srivastava": 1,
    "M Morkel": 1
  },
  "A Uniyal": {
    "SL Malinga": 1
  },
  "RR Powar": {
    "DP Nannes": 1,
    "RE van der Merwe": 1
  },
  "JM Kemp": {
    "PP Ojha": 1,
    "DP Nannes": 1
  },
  "MS Bisla": {
    "A Mishra": 2,
    "PP Chawla": 2,
    "PP Ojha": 2,
    "SK Warne": 2,
    "A Nehra": 2
  },
  "OA Shah": {
    "Z Khan": 2
  },
  "RS Gavaskar": {
    "JM Kemp": 1
  },
  "SE Bond": {
    "R Ashwin": 1
  },
  "DP Nannes": {
    "Harbhajan Singh": 1
  },
  "MJ Lumb": {
    "JA Morkel": 2
  },
  "DR Martyn": {
    "P Kumar": 1
  },
  "S Narwal": {
    "P Kumar": 1,
    "PD Collingwood": 1,
    "UT Yadav": 1
  },
  "P Dogra": {
    "P Kumar": 1,
    "I Sharma": 1,
    "S Ladda": 1,
    "M Kartik": 1,
    "R Bhatia": 1,
    "SP Narine": 1,
    "DW Steyn": 1
  },
  "AB Barath": {
    "PP Ojha": 1,
    "JP Duminy": 1
  },
  "FY Fazal": {
    "SE Bond": 1,
    "SB Jakati": 1,
    "MF Maharoof": 1,
    "M Muralitharan": 1,
    "PP Ojha": 1,
    "RP Singh": 1
  },
  "R Sathish": {
    "JA Morkel": 2,
    "DJ Bravo": 2
  },
  "MD Mishra": {
    "P Kumar": 2
  },
  "GJ Bailey": {
    "MC Henriques": 3
  },
  "J Theron": {
    "SW Tait": 1
  },
  "SJ Srivastava": {
    "SW Tait": 1
  },
  "R Sharma": {
    "S Narwal": 1,
    "Harbhajan Singh": 1,
    "JH Kallis": 1,
    "MM Patel": 1,
    "AD Mascarenhas": 1,
    "R Vinay Kumar": 1,
    "SR Watson": 1,
    "DW Steyn": 1,
    "A Mishra": 1,
    "DJ Bravo": 1
  },
  "AC Voges": {
    "JA Morkel": 1,
    "A Mishra": 1,
    "Z Khan": 1,
    "AB Dinda": 1
  },
  "Jaskaran Singh": {
    "Harbhajan Singh": 1
  },
  "KAJ Roach": {
    "Z Khan": 1
  },
  "PD Collingwood": {
    "CK Langeveldt": 1,
    "BAW Mendis": 1,
    "PP Chawla": 1
  },
  "CK Langeveldt": {
    "AB McDonald": 1,
    "SJ Srivastava": 1
  },
  "VS Malik": {
    "Z Khan": 1
  },
  "SW Tait": {
    "V Sehwag": 1,
    "Shakib Al Hasan": 1,
    "RP Singh": 1
  },
  "A Mithun": {
    "A Mishra": 1,
    "M Morkel": 1,
    "RJ Harris": 1,
    "DJ Bravo": 1,
    "SP Narine": 1
  },
  "AP Dole": {
    "RJ Harris": 1,
    "Harbhajan Singh": 1
  },
  "R McLaren": {
    "R Ashwin": 1,
    "L Ablish": 1,
    "KP Pietersen": 1,
    "SW Tait": 1,
    "S Aravind": 1,
    "A Mishra": 1
  },
  "T Thushara": {
    "RJ Harris": 1
  },
  "S Sriram": {
    "AB Dinda": 1,
    "PP Chawla": 1
  },
  "A Nehra": {
    "IK Pathan": 1,
    "SP Narine": 1,
    "KA Pollard": 1,
    "NLTC Perera": 1,
    "DJ Bravo": 1,
    "SL Malinga": 1
  },
  "C Madan": {
    "AB McDonald": 1
  },
  "AG Paunikar": {
    "R Vinay Kumar": 1,
    "DW Steyn": 1,
    "AB Dinda": 1,
    "Shakib Al Hasan": 1,
    "Iqbal Abdulla": 1
  },
  "MR Marsh": {
    "MG Johnson": 1,
    "Yuvraj Singh": 1,
    "DE Bollinger": 1,
    "PP Ojha": 1,
    "RJ Harris": 1,
    "A Nehra": 1,
    "DJ Bravo": 1,
    "DW Steyn": 1,
    "R Vinay Kumar": 1,
    "R Bhatia": 1,
    "RA Jadeja": 1
  },
  "B Sumanth": {
    "DE Bollinger": 1
  },
  "Harmeet Singh": {
    "M Muralitharan": 1,
    "SP Narine": 1
  },
  "RV Gomez": {
    "DP Nannes": 1,
    "SK Trivedi": 1,
    "I Sharma": 1,
    "S Aravind": 1,
    "RJ Harris": 1
  },
  "UBT Chand": {
    "B Lee": 2,
    "P Kumar": 2,
    "MM Sharma": 2
  },
  "UT Yadav": {
    "Harbhajan Singh": 1,
    "P Parameswaran": 1,
    "R Ashwin": 1,
    "DJ Bravo": 1,
    "MG Johnson": 1,
    "A Nehra": 1,
    "Z Khan": 1
  },
  "DJ Jacobs": {
    "M Morkel": 1,
    "DP Nannes": 1,
    "RV Gomez": 1,
    "I Sharma": 1,
    "A Singh": 1,
    "Bipul Sharma": 1,
    "S Nadeem": 1
  },
  "AL Menaria": {
    "R Ashwin": 2,
    "PP Chawla": 2
  },
  "AUK Pathan": {
    "SL Malinga": 1,
    "TG Southee": 1,
    "RJ Harris": 1,
    "PC Valthaty": 1,
    "A Mishra": 1
  },
  "Sunny Singh": {
    "S Randiv": 1,
    "AB Agarkar": 1,
    "DL Vettori": 1
  },
  "JJ van der Wath": {
    "DW Steyn": 1,
    "PP Chawla": 1
  },
  "R Ninan": {
    "DT Christian": 1
  },
  "MS Wade": {
    "R Sharma": 1,
    "A Mithun": 1,
    "MR Marsh": 1
  },
  "TD Paine": {
    "MM Patel": 1,
    "S Aravind": 1
  },
  "WD Parnell": {
    "JEC Franklin": 1,
    "MM Patel": 1,
    "SL Malinga": 1,
    "L Balaji": 1,
    "SP Narine": 1,
    "BE Hendricks": 1
  },
  "SB Wagh": {
    "SL Malinga": 1
  },
  "JEC Franklin": {
    "Azhar Mahmood": 1,
    "SB Wagh": 1,
    "AB Dinda": 1,
    "A Singh": 1,
    "P Kumar": 1,
    "Z Khan": 1,
    "A Ashish Reddy": 1,
    "B Kumar": 1,
    "BW Hilfenhaus": 1,
    "R Vinay Kumar": 1,
    "DJ Bravo": 1
  },
  "Shakib Al Hasan": {
    "SL Malinga": 3
  },
  "S Randiv": {
    "SL Malinga": 1
  },
  "BJ Haddin": {
    "J Syed Mohammad": 1
  },
  "NLTC Perera": {
    "SR Watson": 2
  },
  "NL McCullum": {
    "DE Bollinger": 1
  },
  "RN ten Doeschate": {
    "PV Tambe": 1,
    "M Morkel": 1,
    "M Muralitharan": 1,
    "Harmeet Singh": 1,
    "B Kumar": 1,
    "A Mishra": 1,
    "AN Ahmed": 1,
    "MG Johnson": 1,
    "Karanveer Singh": 1,
    "Sandeep Sharma": 1,
    "MA Starc": 1,
    "MC Henriques": 1
  },
  "TR Birt": {
    "YK Pathan": 1,
    "RR Powar": 1,
    "R Vinay Kumar": 1,
    "DT Christian": 1,
    "P Kumar": 1
  },
  "SL Malinga": {
    "DJ Bravo": 2
  },
  "M Klinger": {
    "M Morkel": 1,
    "RE van der Merwe": 1,
    "YK Pathan": 1,
    "CH Gayle": 1
  },
  "Harpreet Singh": {
    "SR Watson": 1,
    "SP Narine": 1
  },
  "AC Blizzard": {
    "AC Thomas": 1,
    "S Nadeem": 1,
    "P Kumar": 1,
    "JP Duminy": 1,
    "B Lee": 1,
    "S Aravind": 1,
    "IK Pathan": 1
  },
  "CA Ingram": {
    "SL Malinga": 1,
    "R Ashwin": 1
  },
  "DH Yagnik": {
    "Harbhajan Singh": 2
  },
  "KB Arun Karthik": {
    "Iqbal Abdulla": 1,
    "PP Chawla": 1,
    "NLTC Perera": 1,
    "Harbhajan Singh": 1
  },
  "ND Doshi": {
    "P Parameswaran": 1
  },
  "CJ Ferguson": {
    "JP Duminy": 1,
    "Shakib Al Hasan": 1,
    "Harmeet Singh": 1,
    "J Botha": 1,
    "R Bhatia": 1
  },
  "Y Gnaneswara Rao": {
    "DJ Bravo": 1
  },
  "S Rana": {
    "L Balaji": 1,
    "SR Watson": 1,
    "AR Patel": 1,
    "DJ Hussey": 1
  },
  "DE Bollinger": {
    "SL Malinga": 1
  },
  "RE Levi": {
    "DW Steyn": 2
  },
  "HV Patel": {
    "A Nehra": 2
  },
  "DJ Harris": {
    "DE Bollinger": 1,
    "M Morkel": 1,
    "DJ Hussey": 1
  },
  "KK Cooper": {
    "MM Patel": 1,
    "Z Khan": 1,
    "A Nehra": 1,
    "SP Narine": 1,
    "DW Steyn": 1,
    "KA Pollard": 1,
    "JP Duminy": 1,
    "Harbhajan Singh": 1,
    "AR Patel": 1
  },
  "AA Chavan": {
    "KA Pollard": 1
  },
  "GB Hogg": {
    "MM Patel": 1,
    "HV Patel": 1
  },
  "RR Bhatkal": {
    "DE Bollinger": 1
  },
  "CJ McKay": {
    "IK Pathan": 1
  },
  "N Saini": {
    "Z Khan": 1,
    "PP Ojha": 1,
    "CJ McKay": 1,
    "KMDN Kulasekara": 1,
    "AB McDonald": 1,
    "SW Tait": 1,
    "A Ashish Reddy": 1,
    "DT Christian": 1,
    "UT Yadav": 1,
    "DJ Bravo": 1
  },
  "Azhar Mahmood": {
    "A Mishra": 2
  },
  "A Ashish Reddy": {
    "R Vinay Kumar": 2
  },
  "V Pratap Singh": {
    "SL Malinga": 1
  },
  "RJ Peterson": {
    "A Nehra": 1
  },
  "MJ Clarke": {
    "Harbhajan Singh": 1,
    "M de Lange": 1,
    "STR Binny": 1,
    "R Vinay Kumar": 1,
    "YK Pathan": 1
  },
  "Gurkeerat Singh": {
    "DJ Bravo": 2,
    "R Ashwin": 2
  },
  "AP Majumdar": {
    "J Botha": 1,
    "HV Patel": 1,
    "A Chandila": 1,
    "Shakib Al Hasan": 1
  },
  "PA Reddy": {
    "PP Chawla": 1,
    "SK Trivedi": 1,
    "R Vinay Kumar": 1,
    "Yuvraj Singh": 1,
    "M Muralitharan": 1,
    "MS Gony": 1,
    "A Chandila": 1,
    "MG Johnson": 1,
    "RP Singh": 1
  },
  "AC Thomas": {
    "R Vinay Kumar": 1
  },
  "AD Russell": {
    "Bipul Sharma": 1,
    "P Parameswaran": 1,
    "SP Narine": 1,
    "KK Cooper": 1,
    "MM Sharma": 1,
    "SR Watson": 1,
    "MG Johnson": 1,
    "RS Bopara": 1,
    "Imran Tahir": 1,
    "R Ashwin": 1,
    "AR Patel": 1,
    "SL Malinga": 1,
    "CH Morris": 1,
    "MJ McClenaghan": 1,
    "Mustafizur Rahman": 1,
    "NLTC Perera": 1,
    "TG Southee": 1,
    "A Mishra": 1,
    "YS Chahal": 1
  },
  "Sunny Gupta": {
    "SB Jakati": 1
  },
  "MC Juneja": {
    "L Balaji": 1,
    "KK Cooper": 1,
    "A Mishra": 1,
    "JD Unadkat": 1,
    "MM Sharma": 1,
    "Harmeet Singh": 1
  },
  "GH Vihari": {
    "B Kumar": 2,
    "PP Chawla": 2,
    "SL Malinga": 2
  },
  "MDKJ Perera": {
    "UT Yadav": 1,
    "B Kumar": 1
  },
  "B Laughlin": {
    "KA Pollard": 1
  },
  "BMAJ Mendis": {
    "KA Pollard": 1,
    "DJG Sammy": 1
  },
  "R Rampaul": {
    "DJ Bravo": 1,
    "AB Dinda": 1,
    "SR Watson": 1,
    "SP Narine": 1,
    "PV Tambe": 1
  },
  "P Awana": {
    "JP Faulkner": 1,
    "DJG Sammy": 1
  },
  "BJ Rohrer": {
    "JD Unadkat": 1,
    "R Rampaul": 1,
    "PP Chawla": 1,
    "AM Nayar": 1,
    "R Vinay Kumar": 1,
    "JA Morkel": 1,
    "AB Dinda": 1
  },
  "KL Rahul": {
    "DS Kulkarni": 3
  },
  "J Syed Mohammad": {
    "UT Yadav": 1,
    "DR Smith": 1
  },
  "Q de Kock": {
    "YS Chahal": 2,
    "AB Dinda": 2,
    "AD Russell": 2,
    "KV Sharma": 2
  },
  "BB Samantray": {
    "R Sharma": 1,
    "Azhar Mahmood": 1,
    "Sandeep Sharma": 1,
    "JP Faulkner": 1
  },
  "R Dhawan": {
    "STR Binny": 1,
    "Azhar Mahmood": 1,
    "PP Chawla": 1,
    "Shakib Al Hasan": 1,
    "SL Malinga": 1,
    "B Kumar": 1
  },
  "MG Johnson": {
    "JP Faulkner": 3
  },
  "LJ Wright": {
    "Azhar Mahmood": 1,
    "JD Unadkat": 1,
    "UT Yadav": 1,
    "S Kaul": 1
  },
  "AG Murtaza": {
    "CH Gayle": 1
  },
  "IC Pandey": {
    "CH Gayle": 1
  },
  "X Thalaivan Sargunam": {
    "DJ Bravo": 1
  },
  "DJG Sammy": {
    "JP Faulkner": 2,
    "Shakib Al Hasan": 2
  },
  "KW Richardson": {
    "CH Morris": 1,
    "MG Johnson": 1,
    "B Kumar": 1
  },
  "CM Gautam": {
    "SR Watson": 1,
    "AD Mathews": 1,
    "PP Chawla": 1,
    "R Dhawan": 1,
    "VR Aaron": 1,
    "S Badree": 1,
    "B Kumar": 1,
    "M Morkel": 1,
    "A Nehra": 1
  },
  "UA Birla": {
    "Iqbal Abdulla": 1
  },
  "Parvez Rasool": {
    "L Balaji": 1,
    "B Kumar": 1
  },
  "NJ Maddinson": {
    "Mohammed Shami": 1,
    "SL Malinga": 1,
    "IC Pandey": 1
  },
  "JDS Neesham": {
    "PP Chawla": 1,
    "RA Jadeja": 1,
    "Karanveer Singh": 1
  },
  "TG Southee": {
    "RA Jadeja": 1,
    "Mustafizur Rahman": 1,
    "MM Sharma": 1
  },
  "MA Starc": {
    "R Bhatia": 1,
    "MG Johnson": 1,
    "SL Malinga": 1,
    "L Balaji": 1,
    "MM Sharma": 1
  },
  "BR Dunk": {
    "DJG Sammy": 1,
    "Sandeep Sharma": 1,
    "HV Patel": 1
  },
  "RR Rossouw": {
    "A Nehra": 2
  },
  "PV Tambe": {
    "IK Pathan": 1
  },
  "Shivam Sharma": {
    "MA Starc": 1
  },
  "VH Zol": {
    "R Tewatia": 1,
    "MM Sharma": 1
  },
  "Imran Tahir": {
    "STR Binny": 1,
    "AR Patel": 1,
    "DJ Bravo": 1
  },
  "R Shukla": {
    "KK Cooper": 1
  },
  "BE Hendricks": {
    "JJ Bumrah": 1
  },
  "M de Lange": {
    "Imran Tahir": 1
  },
  "JD Unadkat": {
    "MG Johnson": 1
  },
  "SA Abbott": {
    "TA Boult": 1
  },
  "AN Ahmed": {
    "B Kumar": 1
  },
  "SN Khan": {
    "RA Jadeja": 1,
    "A Nehra": 1,
    "Anureet Singh": 1,
    "DJ Bravo": 1,
    "JJ Bumrah": 1
  },
  "D Wiese": {
    "DJ Bravo": 2
  },
  "Iqbal Abdulla": {
    "DJ Bravo": 1
  },
  "Karanveer Singh": {
    "MA Starc": 1
  },
  "Sandeep Sharma": {
    "YS Chahal": 1
  },
  "J Suchith": {
    "YS Chahal": 1
  },
  "S Gopal": {
    "M Ashwin": 1
  },
  "M Ashwin": {
    "KW Richardson": 1
  },
  "NS Naik": {
    "Mustafizur Rahman": 1,
    "JJ Bumrah": 1
  },
  "PSP Handscomb": {
    "Harbhajan Singh": 1
  },
  "UT Khawaja": {
    "A Mishra": 1,
    "Shakib Al Hasan": 1,
    "CH Morris": 1,
    "Gurkeerat Singh": 1
  },
  "JJ Bumrah": {
    "BB Sran": 1
  },
  "S Kaushik": {
    "Sachin Baby": 1
  },
  "F Behardien": {
    "YS Chahal": 1,
    "AB Dinda": 1
  },
  "KJ Abbott": {
    "YS Chahal": 1
  },
  "JO Holder": {
    "DJ Bravo": 1,
    "Mustafizur Rahman": 1,
    "B Kumar": 1
  },
  "C Munro": {
    "DJ Hooda": 1
  },
  "ER Dwivedi": {
    "SR Watson": 1,
    "B Kumar": 1
  }
}